Lecture Week 9 extra example: bootstrapping NLS
…
A great vignette that this code is taken from directly: broom vignette on bootstrapping from nls

"Bootstrapping is a popular method for providing confidence intervals and predictions that are more robust to the nature of the data.

We can use the bootstraps function in the rsample package to sample bootstrap replications. First, we construct 100 bootstrap replications of the data, each of which has been randomly sampled with replacement. The resulting object is an rset, which is a dataframe with a column of rsplit objects.

An rsplit object has two main components: an analysis dataset and an assessment dataset, accessible via analysis(rsplit) and assessment(rsplit) respectively. For bootstrap samples, the analysis dataset is the bootstrap sample itself, and the assessment dataset consists of all the out of bag samples."

set.seed(1983)
df_boot <- bootstraps(df, times = 1000)
df_boot

## # Bootstrap sampling 
## # A tibble: 1,000 x 2
##    splits           id           
##    <list>           <chr>        
##  1 <rsplit [31/11]> Bootstrap0001
##  2 <rsplit [31/13]> Bootstrap0002
##  3 <rsplit [31/12]> Bootstrap0003
##  4 <rsplit [31/12]> Bootstrap0004
##  5 <rsplit [31/13]> Bootstrap0005
##  6 <rsplit [31/9]>  Bootstrap0006
##  7 <rsplit [31/9]>  Bootstrap0007
##  8 <rsplit [31/10]> Bootstrap0008
##  9 <rsplit [31/9]>  Bootstrap0009
## 10 <rsplit [31/11]> Bootstrap0010
## #  with 990 more rows
…
# Get splits (each bootstrap sample), fit nls to each one, get tidy coefficient data
boot_models <- df_boot %>% 
    mutate(model = map(splits, fit_nls_on_bootstrap),
           coef_info = map(model, tidy))

# Unnest the parameter estimates for each bootstrapped sample
boot_coefs <- boot_models %>% 
    unnest(coef_info)

boot_coefs

## # A tibble: 3,000 x 8
##    splits         id           model term  estimate std.error statistic  p.value
##    <list>         <chr>        <lis> <chr>    <dbl>     <dbl>     <dbl>    <dbl>
##  1 <rsplit [31/1 Bootstrap00 <nls> K      188.       3.64       51.7  2.52e-29
##  2 <rsplit [31/1 Bootstrap00 <nls> A      209.      81.0         2.59 1.52e- 2
##  3 <rsplit [31/1 Bootstrap00 <nls> r        0.378    0.0288     13.1  1.70e-13
##  4 <rsplit [31/1 Bootstrap00 <nls> K      190.       2.64       72.0  2.48e-33
##  5 <rsplit [31/1 Bootstrap00 <nls> A       92.4     18.6         4.96 3.07e- 5
##  6 <rsplit [31/1 Bootstrap00 <nls> r        0.319    0.0157     20.3  2.73e-18
##  7 <rsplit [31/1 Bootstrap00 <nls> K      204.       5.81       35.1  1.05e-24
##  8 <rsplit [31/1 Bootstrap00 <nls> A       82.9     22.3         3.72 8.83e- 4
##  9 <rsplit [31/1 Bootstrap00 <nls> r        0.301    0.0213     14.1  3.08e-14
## 10 <rsplit [31/1 Bootstrap00 <nls> K      188.       3.86       48.8  1.26e-28
## #  with 2,990 more rows
…
# See that these estimates are a bit different than from our single sample! 

boot_aug <- boot_models %>% 
    mutate(augmented = map(model, augment)) %>% 
    unnest(augmented)

boot_aug

## # A tibble: 31,000 x 8
##    splits          id           model  coef_info       time   pop .fitted .resid
##    <list>          <chr>        <list> <list>         <dbl> <dbl>   <dbl>  <dbl>
##  1 <rsplit [31/11 Bootstrap00 <nls>  <tibble [3       2     9    1.90  7.10 
##  2 <rsplit [31/11 Bootstrap00 <nls>  <tibble [3      17   131  141.   -9.75 
##  3 <rsplit [31/11 Bootstrap00 <nls>  <tibble [3      20   169  170.   -0.749
##  4 <rsplit [31/11 Bootstrap00 <nls>  <tibble [3      12    59   58.2   0.805
##  5 <rsplit [31/11 Bootstrap00 <nls>  <tibble [3      29   196  187.    8.57 
##  6 <rsplit [31/11 Bootstrap00 <nls>  <tibble [3      20   169  170.   -0.749
##  7 <rsplit [31/11 Bootstrap00 <nls>  <tibble [3      11    35   44.2  -9.16 
##  8 <rsplit [31/11 Bootstrap00 <nls>  <tibble [3      21   182  175.    6.87 
##  9 <rsplit [31/11 Bootstrap00 <nls>  <tibble [3      15   111  110.    1.46 
## 10 <rsplit [31/11 Bootstrap00 <nls>  <tibble [3      10    34   32.7   1.33 
## #  with 30,990 more rows
…
